{"failedCount":0,"prefixedPath":"src\/test\/java\/resources\/GetApi.feature","packageQualifiedName":"src.test.java.resources.GetApi","loopIndex":-1,"relativePath":"src\/test\/java\/resources\/GetApi.feature","scenarioResults":[{"sectionIndex":0,"stepResults":[{"result":{"nanos":239692200,"millis":239.6922,"status":"passed"},"step":{"background":true,"line":3,"prefix":"*","index":0,"text":"url 'https:\/\/reqres.in\/api'"}},{"result":{"nanos":19195000,"millis":19.195,"status":"passed"},"step":{"background":true,"line":4,"prefix":"*","index":1,"text":"headers Accept = 'application\/json'"},"stepLog":"15:53:33.966 did not evaluate to map Accept = 'application\/json': [type: STRING, value: application\/json]\n"},{"result":{"nanos":3023401,"millis":3.023401,"status":"passed"},"step":{"line":6,"prefix":"Given","index":0,"text":"path  '\/users?page=2'"}},{"result":{"nanos":1592580199,"millis":1592.580199,"status":"passed"},"step":{"line":7,"prefix":"When","index":1,"text":"method GET"},"stepLog":"15:53:35.117 request:\n1 > GET https:\/\/reqres.in\/api\/users%3Fpage=2\n1 > Host: reqres.in\n1 > Connection: Keep-Alive\n1 > User-Agent: Apache-HttpClient\/4.5.13 (Java\/1.8.0_121)\n1 > Accept-Encoding: gzip,deflate\n\n\n15:53:35.507 response time in milliseconds: 385\n1 < 200\n1 < Date: Sat, 10 Jun 2023 14:53:35 GMT\n1 < Content-Type: application\/json; charset=utf-8\n1 < Transfer-Encoding: chunked\n1 < Connection: keep-alive\n1 < X-Powered-By: Express\n1 < Access-Control-Allow-Origin: *\n1 < Etag: W\/\"2c1-N6Rqerxquq2kgQhL51EiSg4x0R8\"\n1 < Via: 1.1 vegur\n1 < Cache-Control: max-age=14400\n1 < CF-Cache-Status: HIT\n1 < Age: 12\n1 < Report-To: {\"endpoints\":[{\"url\":\"https:\\\/\\\/a.nel.cloudflare.com\\\/report\\\/v3?s=J7KYoiEnIWoEANcMHRjLd8XbdAMxXMfqXhmoWBa52IQSBmfkqcJu6PmlAmYLaWRUfKI7OjXpXVu1N%2BY8etv%2FZWLAhQhQD%2Bn8YGCcxAXEz3WxHEZqR%2B9C7oBxQA%3D%3D\"}],\"group\":\"cf-nel\",\"max_age\":604800}\n1 < NEL: {\"success_fraction\":0,\"report_to\":\"cf-nel\",\"max_age\":604800}\n1 < Vary: Accept-Encoding\n1 < Server: cloudflare\n1 < CF-RAY: 7d5271d958b5718d-LHR\n{\"page\":1,\"per_page\":6,\"total\":12,\"total_pages\":2,\"data\":[{\"id\":1,\"name\":\"cerulean\",\"year\":2000,\"color\":\"#98B2D1\",\"pantone_value\":\"15-4020\"},{\"id\":2,\"name\":\"fuchsia rose\",\"year\":2001,\"color\":\"#C74375\",\"pantone_value\":\"17-2031\"},{\"id\":3,\"name\":\"true red\",\"year\":2002,\"color\":\"#BF1932\",\"pantone_value\":\"19-1664\"},{\"id\":4,\"name\":\"aqua sky\",\"year\":2003,\"color\":\"#7BC4C4\",\"pantone_value\":\"14-4811\"},{\"id\":5,\"name\":\"tigerlily\",\"year\":2004,\"color\":\"#E2583E\",\"pantone_value\":\"17-1456\"},{\"id\":6,\"name\":\"blue turquoise\",\"year\":2005,\"color\":\"#53B0AE\",\"pantone_value\":\"15-5217\"}],\"support\":{\"url\":\"https:\/\/reqres.in\/#support-heading\",\"text\":\"To keep ReqRes free, contributions towards server costs are appreciated!\"}}\n\n"},{"result":{"nanos":21599,"millis":0.021599,"status":"passed"},"step":{"line":8,"prefix":"Then","index":2,"text":"status 200"}}],"executorName":"main","line":5,"name":"Get Demo 1","description":"","durationMillis":1854.512399,"startTime":1686408813664,"failed":false,"refId":"[1:5]","endTime":1686408815565,"exampleIndex":-1}],"callDepth":0,"name":"Get API Demo","description":"","resultDate":"2023-06-10 03:53:35 PM","durationMillis":1854.512399,"passedCount":1}