{"failedCount":1,"prefixedPath":"src\/test\/java\/resources\/GetApi.feature","packageQualifiedName":"src.test.java.resources.GetApi","loopIndex":-1,"relativePath":"src\/test\/java\/resources\/GetApi.feature","scenarioResults":[{"sectionIndex":0,"stepResults":[{"result":{"nanos":129586200,"millis":129.5862,"status":"passed"},"step":{"background":true,"line":3,"prefix":"*","index":0,"text":"url 'https:\/\/reqres.in\/api'"}},{"result":{"nanos":11092701,"millis":11.092701,"status":"passed"},"step":{"background":true,"line":4,"prefix":"*","index":1,"text":"headers Accept = 'application\/json'"},"stepLog":"15:55:47.519 did not evaluate to map Accept = 'application\/json': [type: STRING, value: application\/json]\n"},{"result":{"nanos":737700,"millis":0.7377,"status":"passed"},"step":{"line":6,"prefix":"Given","index":0,"text":"path  '\/users?page=2'"}},{"result":{"nanos":1227602300,"millis":1227.6023,"status":"passed"},"step":{"line":7,"prefix":"When","index":1,"text":"method GET"},"stepLog":"15:55:48.291 request:\n1 > GET https:\/\/reqres.in\/api\/users%3Fpage=2\n1 > Host: reqres.in\n1 > Connection: Keep-Alive\n1 > User-Agent: Apache-HttpClient\/4.5.13 (Java\/1.8.0_121)\n1 > Accept-Encoding: gzip,deflate\n\n\n15:55:48.681 response time in milliseconds: 386\n1 < 200\n1 < Date: Sat, 10 Jun 2023 14:55:48 GMT\n1 < Content-Type: application\/json; charset=utf-8\n1 < Transfer-Encoding: chunked\n1 < Connection: keep-alive\n1 < X-Powered-By: Express\n1 < Access-Control-Allow-Origin: *\n1 < Etag: W\/\"2c1-N6Rqerxquq2kgQhL51EiSg4x0R8\"\n1 < Via: 1.1 vegur\n1 < Cache-Control: max-age=14400\n1 < CF-Cache-Status: HIT\n1 < Age: 142\n1 < Report-To: {\"endpoints\":[{\"url\":\"https:\\\/\\\/a.nel.cloudflare.com\\\/report\\\/v3?s=P6yerE9gcNZ5P%2Bzp4Z1tHHn3pdffmJAEApBarta6N7nz057uTWnaauePDf07r2CF0LyUt7nIFbhRUewtqxrPI%2Fa4QN3N5Gf4MHad1UDgW9tEGcmnz%2FQkFLcE2w%3D%3D\"}],\"group\":\"cf-nel\",\"max_age\":604800}\n1 < NEL: {\"success_fraction\":0,\"report_to\":\"cf-nel\",\"max_age\":604800}\n1 < Vary: Accept-Encoding\n1 < Server: cloudflare\n1 < CF-RAY: 7d5275199c1b23ba-LHR\n{\"page\":1,\"per_page\":6,\"total\":12,\"total_pages\":2,\"data\":[{\"id\":1,\"name\":\"cerulean\",\"year\":2000,\"color\":\"#98B2D1\",\"pantone_value\":\"15-4020\"},{\"id\":2,\"name\":\"fuchsia rose\",\"year\":2001,\"color\":\"#C74375\",\"pantone_value\":\"17-2031\"},{\"id\":3,\"name\":\"true red\",\"year\":2002,\"color\":\"#BF1932\",\"pantone_value\":\"19-1664\"},{\"id\":4,\"name\":\"aqua sky\",\"year\":2003,\"color\":\"#7BC4C4\",\"pantone_value\":\"14-4811\"},{\"id\":5,\"name\":\"tigerlily\",\"year\":2004,\"color\":\"#E2583E\",\"pantone_value\":\"17-1456\"},{\"id\":6,\"name\":\"blue turquoise\",\"year\":2005,\"color\":\"#53B0AE\",\"pantone_value\":\"15-5217\"}],\"support\":{\"url\":\"https:\/\/reqres.in\/#support-heading\",\"text\":\"To keep ReqRes free, contributions towards server costs are appreciated!\"}}\n\n"},{"result":{"nanos":28000,"millis":0.028,"status":"passed"},"step":{"line":8,"prefix":"Then","index":2,"text":"status 200"}},{"result":{"nanos":168579100,"millis":168.5791,"status":"passed"},"step":{"line":9,"prefix":"And","index":3,"text":"print  response"},"stepLog":"15:55:48.914 [print] {\n  \"page\": 1,\n  \"per_page\": 6,\n  \"total\": 12,\n  \"total_pages\": 2,\n  \"data\": [\n    {\n      \"id\": 1,\n      \"name\": \"cerulean\",\n      \"year\": 2000,\n      \"color\": \"#98B2D1\",\n      \"pantone_value\": \"15-4020\"\n    },\n    {\n      \"id\": 2,\n      \"name\": \"fuchsia rose\",\n      \"year\": 2001,\n      \"color\": \"#C74375\",\n      \"pantone_value\": \"17-2031\"\n    },\n    {\n      \"id\": 3,\n      \"name\": \"true red\",\n      \"year\": 2002,\n      \"color\": \"#BF1932\",\n      \"pantone_value\": \"19-1664\"\n    },\n    {\n      \"id\": 4,\n      \"name\": \"aqua sky\",\n      \"year\": 2003,\n      \"color\": \"#7BC4C4\",\n      \"pantone_value\": \"14-4811\"\n    },\n    {\n      \"id\": 5,\n      \"name\": \"tigerlily\",\n      \"year\": 2004,\n      \"color\": \"#E2583E\",\n      \"pantone_value\": \"17-1456\"\n    },\n    {\n      \"id\": 6,\n      \"name\": \"blue turquoise\",\n      \"year\": 2005,\n      \"color\": \"#53B0AE\",\n      \"pantone_value\": \"15-5217\"\n    }\n  ],\n  \"support\": {\n    \"url\": \"https:\/\/reqres.in\/#support-heading\",\n    \"text\": \"To keep ReqRes free, contributions towards server costs are appreciated!\"\n  }\n}\n \n"},{"result":{"nanos":26406401,"errorMessage":"js failed:\n>>>>\n01: karate.log('[print]',responsestatus)\n<<<<\norg.graalvm.polyglot.PolyglotException: ReferenceError: \"responsestatus\" is not defined\n- <js>.:program(Unnamed:1)\n\nsrc\/test\/java\/resources\/GetApi.feature:10","millis":26.406401,"status":"failed"},"step":{"line":10,"prefix":"And","index":4,"text":"print responsestatus"},"stepLog":"15:55:48.944 src\/test\/java\/resources\/GetApi.feature:10\nAnd print responsestatus\njs failed:\n>>>>\n01: karate.log('[print]',responsestatus)\n<<<<\norg.graalvm.polyglot.PolyglotException: ReferenceError: \"responsestatus\" is not defined\n- <js>.:program(Unnamed:1)\n\nsrc\/test\/java\/resources\/GetApi.feature:10\n"}],"line":5,"description":"","durationMillis":1564.032402,"failed":true,"error":"js failed:\n>>>>\n01: karate.log('[print]',responsestatus)\n<<<<\norg.graalvm.polyglot.PolyglotException: ReferenceError: \"responsestatus\" is not defined\n- <js>.:program(Unnamed:1)\n\nsrc\/test\/java\/resources\/GetApi.feature:10","executorName":"main","name":"Get Demo 1","startTime":1686408947357,"refId":"[1:5]","endTime":1686408948944,"exampleIndex":-1}],"callDepth":0,"name":"Get API Demo","description":"","resultDate":"2023-06-10 03:55:48 PM","durationMillis":1564.032402,"passedCount":0}